603865 556053 434
319765 958882 525
199261 235717 443
853925 840878 419
226251 733814 509
58923 735977 509
176533 91572 383
101176 971221 525
771941 869205 525
429196 322190 449
834659 192872 509
829294 584080 509
709670 105292 509
403272 932080 525
541480 714153 509
47663 469132 449
474662 737511 509
714787 618048 509
963529 488692 525
394021 591305 470
749127 461849 509
326206 458158 449
631379 675884 442
295708 757875 509
865497 346272 525
393394 573582 470
656103 935555 525
320060 284143 389
16257 77240 351
73198 355157 443
991795 712821 525
641739 215578 509
368838 144422 443
516375 245032 470
881508 863024 432
16643 959335 525
25319 684563 509
575370 639906 509
899359 334 525
990136 860900 507
55836 278848 443
926495 555211 525
797934 10771 509
369095 698489 509
440828 862039 525
685632 9457 509
749438 432036 509
974277 236821 525
225864 681391 509
987988 938068 507
980486 348468 525
277141 828481 509
266492 82662 443
930207 934295 370
681712 106725 509
333403 489599 449
215225 200309 373
815723 823745 450
370588 486909 449
321329 439569 449
551827 729338 509
700961 33632 509
794595 981913 525
700906 254855 509
321869 772505 509
645616 33227 509
291022 772098 509
875877 240820 525
131881 764778 509
160096 849519 525
407995 67658 443
338268 170049 443
725069 466610 509
610586 431254 470
868647 124960 525
281035 579020 470
195921 528141 470
108629 112408 323
302178 467756 449
812463 8391 509
634456 911696 525
883608 304163 525
548628 560240 421
353159 269339 441
924509 767639 525
374985 172687 443
882619 13206 525
783969 693193 504
234828 281067 407
936328 350431 525
58275 39991 340
702205 978402 525
156592 871701 525
608472 837816 525
282103 428426 449
156804 267741 443
533259 373247 470
542259 53281 470
220639 405730 443
73578 697709 509
751666 326756 509
145322 952848 525
201362 512174 470
454625 514850 470
342695 77134 443
205700 724410 509
953063 172977 525
209957 307035 443
991894 536035 525
500835 407468 449
930906 349809 525
149342 483826 449
832998 634704 504
184644 820954 509
746357 385052 509
90442 140791 354
393253 757025 509
540306 545183 408
380646 861126 525
65978 975092 525
826991 508428 509
429259 155324 449
841606 113095 525
926192 126608 525
383031 431354 449
868744 388505 525
340798 901611 525
291314 328966 384
216019 536813 470
146151 927648 525
87261 527221 470
62865 413914 449
383694 704364 509
651373 336978 509
194042 10802 383
560997 353086 470
865245 54818 525
65955 716655 509
552731 57001 470
15172 191649 383
108927 337536 443
773090 28877 509
610320 143032 470
675529 697784 442
411201 237126 449
230248 777776 509
412271 373117 449
622105 323741 470
389823 982422 525
21730 656495 509
310690 892079 525
347533 594303 470
888165 460533 525
418346 679339 509
490207 938416 525
342214 644666 509
372142 942419 525
137964 419450 449
782143 322451 509
931252 668329 525
846768 295035 525
838927 224383 525
551869 221882 470
413345 571441 470
198502 297430 443
94283 252998 443
826879 949428 525
650709 886122 525
603431 694422 509
268288 514378 470
405648 278201 441
587962 321739 470
516229 914482 525
35601 680848 509
161169 583267 470
564630 904149 525
510665 353878 449
532312 12407 470
73659 173043 383
783840 962114 525
471200 728036 509
989647 790925 525
976301 372453 525
860267 684028 525
542688 249731 470
52816 795972 509
342104 726781 509
61968 979723 525
962418 849907 507
558055 659967 509
855366 245523 525
907414 491863 525
459941 132654 449
745459 319947 509
277603 420103 449
258868 114944 443
532181 508376 470
887419 433747 525
122884 616215 470
411849 240133 449
661893 735319 504
599700 881749 525
860718 462643 525
135567 969832 525
961562 808925 525
538539 136363 470
391881 592654 470
821039 692345 504
938166 983434 507
81240 840097 525
191861 471809 449
620290 806030 509
184524 52937 383
212299 766083 509
196967 520823 470
505115 729124 509
268222 45791 443
206439 686887 509
907457 66625 525
776881 298262 509
14911 273233 443
812327 951605 525
215002 377985 443
671780 247740 509
314204 560702 470
588787 369468 470
20734 471721 449
902604 731316 525
767568 238339 509
726265 659210 504
979958 737829 525
136968 929972 525
882601 257940 525
395677 122207 443
796607 800686 375
337394 342734 366
409672 471408 449
830475 362484 509
867689 756202 525
989389 516475 525
116098 360606 443
781763 228877 509
713105 837074 468
98933 3256 351
910534 225017 525
856339 635906 525
