28400 590674
849218 421023
760762 579131
952810 885688
347883 724839
300734 355387
856946 148838
46899 888534
558023 141082
394591 369091
830932 834545
526195 422602
823769 147689
660577 657256
458701 495610
768458 718646
516105 840258
480016 274369
831702 407704
76223 969788
520538 898940
858965 802845
103189 32777
601784 560321
470973 684253
849550 618032
240263 61535
545959 423693
711998 336649
493158 604280
23364 232876
229212 785034
490228 50583
966611 558884
621566 925111
289933 819047
363025 475608
682548 110860
249530 914417
680143 416950
169791 247223
381883 627835
379062 190577
940675 191632
509988 543672
719794 931823
169981 274299
46613 610594
113456 567835
236336 487698
760367 100237
900385 876948
98139 865491
728798 961302
857572 865434
100120 756199
342040 233960
143875 882484
451867 198230
709816 991926
933716 874458
473955 544285
916645 748840
167933 14011
928604 798226
171703 855099
952358 920774
424994 352933
896052 490489
961328 60061
462957 660342
129450 964445
280606 43617
408278 904325
322338 706700
165097 91870
40007 832682
643531 875636
610695 464872
318357 568062
34152 244208
11413 920035
400662 921965
383020 197255
774713 449342
31699 456385
623345 531789
709633 872664
68842 925047
793400 931411
923207 847026
566307 426702
13868 343557
244839 942323
977103 657284
449441 495648
501472 912164
201924 294251
325054 744905
368258 644728
109388 809709
101354 283296
168525 916987
893628 243812
267401 110072
772011 723779
610836 706962
442575 672654
229966 115472
516322 974653
975761 111317
42783 295695
105070 972840
66052 400908
561930 158497
467375 297783
466161 153359
568218 856698
195378 722717
538640 984941
672849 79513
180854 538367
526220 593009
454894 291291
872197 110336
495378 189553
724743 700829
636619 732959
942518 965899
157990 338204
673229 348455
752759 527380
611237 663591
184020 201891
47999 215408
930797 835733
321786 289561
361810 290222
906681 963847
904287 603642
301571 80697
626305 282126
443948 78333
342314 637924
914066 521758
115561 240563
828012 920714
33904 878025
731169 559878
23050 506716
919532 240380
667900 178021
13096 130719
106307 493831
107477 791189
243298 666331
981327 587308
34416 173035
581551 392536
78727 428577
125174 12385
550867 966195
985188 683863
586038 617920
807301 897512
183783 783336
667291 637217
909822 256983
127565 454584
543307 640727
567090 21836
887968 310206
161095 298398
353522 570916
297706 210668
221030 194032
820954 197773
875083 217125
130057 539486
593752 142494
519107 313170
92152 495993
730280 965024
130774 18746
721718 309702
420268 861027
992469 874519
562091 992795
631455 255041
410603 945494
485705 628455
925585 819846
161976 759452
453705 358706
532079 568537
910008 320974
120064 150933
30755 267890
44497 476048
340195 398018
992248 302691
566159 994742
122404 456192
844510 114966
537224 810014
809777 565257
88305 269660
681511 832319
656369 658278
405770 260870
474179 975452
405890 561502
114837 199061
695307 590365
808701 51980
896222 188835
973105 474574
568986 107848
717907 716387
922223 112396
753055 419320
76377 985459
808109 85064
626652 116322
362408 210997
877987 175958
41700 759752
898084 445325
414459 404462
904310 619633
55110 985943
101658 649762
549534 681793
88289 838138
271237 85318
547546 283705
193959 351216
490594 654112
28508 463893
838346 276829
855686 316865
145994 148832
921464 880373
626414 707347
931022 659362
194842 595845
