744784 822178
967183 662839
115285 651526
144659 526395
896762 229789
120400 802758
626679 184397
779113 782002
212915 742110
465760 332447
575277 846062
269493 931612
22435 890874
471206 940168
206315 749438
874922 943071
68058 822717
416314 939291
554284 523953
402719 275957
521768 676912
534601 351384
160905 835591
264070 125312
773436 597264
609219 776501
319636 571932
783214 128793
745832 502492
511688 443131
256712 169145
784731 413227
41253 585211
625508 373281
712084 969375
514769 746398
265997 388384
132909 947614
213407 432492
93184 311709
707355 566382
336546 731675
627482 192450
933198 113051
550897 853415
245606 186593
982856 124812
927639 902800
969563 539266
938176 764599
12489 112196
815589 377951
675249 171829
618635 762239
458305 547081
697364 963984
828447 906721
486833 3865
71533 910426
540354 290171
750922 205796
986673 209228
66768 34499
986405 630302
716125 429868
917499 656179
312278 405237
569322 684924
566652 287991
155946 774261
329839 959537
893196 962172
223351 131073
885618 190473
963273 15325
284435 229975
607614 941030
33698 233442
918485 221239
729706 450363
748164 458623
925616 265409
101843 367630
759703 606766
71414 958527
758071 41659
699460 537009
578686 568621
372529 91954
516430 231260
775575 785194
280941 623011
13661 178104
603414 317376
144175 737392
862027 723062
775360 379194
495067 919413
457787 906096
296342 654314
958393 652338
611339 509232
624356 36795
877462 254831
92920 144314
810287 544928
602149 79942
905988 850845
54486 366017
588084 866795
164479 526098
337670 850171
755948 921484
145135 289970
82511 201996
793035 544484
353497 970103
86089 791791
787367 341893
338571 598396
471570 801996
586341 445259
551184 331009
14653 189552
963280 712892
313823 862482
406517 696380
941510 59788
385699 434609
32745 399691
766291 13611
998255 826570
429038 492679
3748 673765
427600 753534
38894 261359
246052 474944
44948 374016
770944 902499
783789 417179
301898 484046
800508 168784
96273 894743
724156 338239
889391 910594
980650 436357
872816 89430
15177 344024
153641 753133
656466 8394
810396 76895
662680 445257
603328 796026
653454 210644
99583 988475
545872 201424
547995 833156
756496 777245
485773 315995
588219 680261
779875 698828
279969 248422
475460 258295
160358 185392
705992 717690
218801 796906
372134 350249
722393 415937
35814 517908
568531 117297
334737 412206
347310 934736
826177 586801
58960 368706
985990 444100
124678 112950
300845 21573
263290 51712
757808 273468
542960 307609
825085 374756
322286 269400
879837 182756
210577 639234
200646 256601
818343 798460
898152 793394
752919 623765
441358 919799
181221 671749
569030 420968
605468 178577
728397 571433
850431 32788
190375 549122
640066 729155
165766 944393
701833 710227
315791 940372
292371 47356
396959 252741
668111 891456
246358 244496
697868 259517
964270 879897
321229 617884
541816 411425
323544 999387
247730 982366
663685 153139
59829 582166
638244 662311
119346 891538
77659 382937
775262 343800
437064 37708
450813 452476
963657 304504
248758 363403
610549 357159
820665 694535
866270 296500
926560 458682
597151 981580
191592 367535
498009 808510
710447 915344
493670 86979
242516 938220
62097 489875
519275 601350
877650 419954
