975979 337456 525
898589 268833 525
307220 323576 384
813321 860487 525
739378 441777 509
755384 41349 509
62991 141686 354
894641 65056 525
940762 83539 525
191995 668458 509
899669 601719 525
555798 730750 509
158227 744634 509
337865 948657 525
364868 884388 525
756420 498064 509
88764 585883 470
919887 272667 525
952405 617115 525
97782 565134 470
632250 374066 509
263225 961808 525
581601 704879 509
346718 741478 509
61458 629616 509
549440 388162 470
77645 365598 443
429093 746672 509
456448 732234 509
417729 959058 525
771334 776129 437
334629 455381 449
179747 443337 449
431460 912642 525
969994 744685 525
972503 701915 525
950139 135497 525
337865 731991 509
910107 220971 525
280742 205322 443
221402 867371 525
433186 587411 470
452519 301058 449
165710 708309 509
867463 969998 507
814917 636581 504
105515 844264 525
886828 641508 525
153526 378207 443
77114 438082 449
947996 138689 525
572932 989912 525
654365 492282 509
947356 178146 525
725137 36157 509
362159 814057 509
899094 942591 507
196665 387352 443
467083 649063 509
126419 706240 509
59008 234419 443
407351 848919 525
978272 518668 525
316982 221904 443
589891 983303 525
614609 898089 525
272549 914749 525
242741 371878 441
774397 562829 509
865046 665065 525
333803 991441 525
227433 244809 443
511717 95830 449
97214 633655 509
716691 477122 509
302559 653810 509
485709 180396 449
945016 30636 525
169494 525421 470
60447 276125 443
513075 100496 470
210527 789474 509
129642 712948 509
431424 37819 449
404105 577581 470
928469 324249 525
919884 946681 507
425311 691043 509
586884 353278 470
660430 673257 442
286730 136406 443
625569 771291 509
76770 558780 470
86976 898718 525
8922 855228 525
960630 851453 507
98791 840080 525
456521 820345 509
650339 916236 525
344631 135642 443
508446 110741 449
851991 503249 525
344471 465366 449
389262 263193 441
34266 877334 525
475546 60605 449
230128 464198 449
123595 157896 383
694336 272375 509
267837 492622 449
989010 351663 525
106813 238104 443
975614 788931 525
646363 731104 504
695573 342487 509
956432 556570 525
870501 541088 525
975534 772015 525
791398 231215 509
783708 657921 504
205904 143766 383
749964 809129 468
567293 354726 470
128169 916300 525
996479 234828 525
76476 740873 509
102125 859212 525
146779 575132 470
293118 690718 509
706365 868557 525
445027 38309 449
145862 934383 525
418118 710839 509
608447 668074 509
401887 909712 525
373374 548207 470
647501 479653 509
395236 189324 443
622219 567644 447
821798 870749 525
907720 951876 507
134764 926904 525
92341 430892 449
169704 585182 470
866484 634819 525
560866 582821 421
479377 937609 525
15123 35458 311
793004 571553 509
88428 94068 333
132226 87279 354
75001 657618 509
498024 204380 449
532195 927574 525
114919 528792 470
622506 793651 509
614063 30048 470
767685 986219 525
462175 702822 509
126064 284309 443
695169 51236 509
955270 720660 525
648490 790182 504
387930 474612 449
180063 556890 470
764889 228283 509
884047 34144 525
699758 859961 525
888098 792158 525
99553 437632 449
856534 645725 525
841750 119316 525
396760 750235 509
254479 473602 449
876064 526939 525
768064 711626 468
946044 145789 525
492025 939664 525
366113 468609 449
334678 943721 525
211486 505083 449
806522 79521 509
38037 672927 509
201367 823888 509
312182 677732 509
56218 602278 470
98657 457331 449
612367 781999 509
876484 277797 525
486309 520008 470
517970 782438 509
480040 672623 509
626454 799041 504
429060 373274 449
512834 400793 470
490209 628467 509
269465 187801 443
141028 558713 470
419577 195737 449
935969 168405 525
627478 728870 504
442482 560478 470
190981 251873 443
269710 894190 525
836058 10415 509
960020 677620 525
123722 832904 509
23602 531636 470
588236 54142 470
434688 245246 449
397791 715541 509
476847 667577 509
596482 245871 470
165389 276811 443
613918 292760 470
485154 624083 470
735329 672238 504
49177 957238 525
555982 473927 470
614903 16815 470
949616 231274 525
366641 559183 470
750669 938796 525
