511646 520985 470
386484 222733 443
5739 214566 383
12753 705584 509
144286 160698 383
788060 425657 509
889820 207264 525
816625 814668 357
760999 768023 468
345352 992470 525
811709 577743 509
291551 837325 509
916399 971593 507
253212 377138 441
63069 83467 351
901964 392819 525
412908 951148 525
553692 164644 470
97204 402265 443
791521 187785 509
552877 197208 470
398964 549261 470
953968 83778 525
230859 870215 525
47123 823973 509
278938 306208 389
197220 778001 509
88943 786716 509
876128 909457 445
560507 453859 470
454404 113455 449
989431 661240 525
198461 518937 470
572170 744965 509
305403 103427 443
614592 815802 509
292047 911492 525
835306 816780 450
936055 533371 525
73755 528788 470
341740 189717 443
773618 538837 509
628847 556195 509
436573 536844 470
760206 144815 509
860010 900425 445
898855 529946 525
658306 307359 509
339124 729063 509
831592 410646 509
284997 318026 389
877438 678316 525
323218 543772 470
800389 889771 525
460587 330454 449
903554 909077 445
123279 539801 470
457344 72600 449
831678 635292 504
602346 145192 470
506167 641656 509
386021 106779 443
729386 474359 509
97652 776358 509
889158 576914 525
885241 601485 525
13268 858583 525
242077 719008 509
70329 345454 443
883427 420861 525
403012 19678 443
224572 421321 449
624133 920173 525
789889 13192 509
982175 864056 507
648482 857071 525
691091 824657 504
392699 151589 443
768716 378032 509
714161 812068 468
655996 640851 416
794295 636777 504
391797 783325 509
484675 201355 449
986420 340592 525
661104 670177 442
103023 462208 449
630982 944651 525
178441 719397 509
503996 299728 449
292621 483805 449
455659 121142 449
833636 103420 509
676435 777653 504
409744 424642 449
511597 994623 525
279977 60995 443
657314 72757 509
800244 244907 509
498425 26667 449
8488 11359 268
607302 427128 470
78680 510091 449
101203 396534 443
961020 56955 525
177551 302976 443
74937 246400 443
438252 24068 449
405724 646559 509
233143 821655 509
494558 894984 525
775062 856595 525
437713 185809 449
820030 294749 509
229179 614351 470
931564 63506 525
486429 609260 470
47985 29123 324
578783 166033 470
880509 443014 525
351160 413909 449
782341 436981 509
931696 619645 525
895594 30455 525
787320 50212 509
967646 444529 525
849126 582495 525
843405 606722 525
686394 828933 504
676575 121287 509
709832 238645 509
835068 209092 509
542235 847933 525
201029 49895 383
914081 761198 525
722597 350244 509
770113 766179 468
806252 734713 468
407150 974625 525
471378 221969 449
803579 214492 509
895553 542986 525
841441 196211 525
938310 920512 476
914784 809227 525
119747 798100 509
336738 64884 443
9594 862712 525
391307 682195 509
859830 589181 525
177426 484828 449
98947 937609 525
121671 926931 525
894195 682235 525
709590 25204 509
655775 275754 509
179372 905010 525
327449 960154 525
603534 140369 470
302706 324891 384
861317 13235 525
557123 87908 470
958118 366111 525
937343 403621 525
789897 605479 509
197835 704658 509
650246 868464 525
7628 659683 509
4799 178034 383
460094 521529 470
982885 854963 507
93719 861030 525
48535 830926 509
121663 818167 509
876717 161684 525
573473 262079 470
50821 417823 449
420186 633125 509
853693 304004 525
769144 721695 468
843559 798976 525
821468 245630 509
997663 117595 525
889398 175216 525
376724 553741 470
322929 194553 443
348009 308627 441
342812 690025 509
484584 86986 449
451248 639812 509
641556 843603 525
586436 268453 470
872171 918515 476
307959 936464 525
541314 769749 509
664690 555111 509
148168 812797 509
381982 46163 443
20228 891995 525
136334 883789 525
268692 908966 525
779300 560846 509
200080 17447 383
573648 893478 525
201222 167178 365
767911 188013 509
616990 202623 470
526224 760569 509
790787 173532 509
105545 732480 509
624039 133177 470
153595 738137 509
15202 2596 276
45276 75737 340
932647 885858 476
887562 196594 525
771817 591059 509
291584 303460 371
115212 696205 509
371082 138913 443
126883 177586 383
637065 538003 509
959501 78017 525
365351 318206 441
466388 640611 509
924155 573102 525
190849 399719 443
572596 273921 470
826984 226473 509
713773 414626 509
146434 98324 375
40349 181881 383
205695 515966 470
552638 815339 509
679487 841331 525
341978 11265 443
145369 805627 509
404493 868047 525
635365 320819 509
857574 743824 525
824575 444508 509
72632 473628 449
795603 10297 509
189628 321318 443
394450 260700 441
227106 349684 443
588484 167707 470
596609 926830 525
180930 70134 383
9634 61390 340
104839 195448 383
861180 652540 525
507515 296045 449
857486 820250 525
100927 250046 443
207120 974473 525
226448 797455 509
822661 272135 509
877636 177391 525
376542 755906 509
172526 280508 443
905963 705995 525
928206 87320 525
