9514 173388
917584 589768
199572 883677
389380 553941
504060 395762
127895 749739
744892 396422
153028 194917
278006 594685
913820 180855
644508 258815
10440 475132
811078 303624
870143 8586
237904 970474
289696 87092
210923 853328
700684 331910
445532 243957
852485 497729
612849 806006
143675 310618
103771 600904
2382 214528
126242 673572
780923 35722
615203 800242
203642 534023
842944 922141
399100 849731
700961 648465
639959 647132
765035 807421
743202 213325
288094 380991
817849 128170
513655 200150
403733 333890
857434 927215
97097 986830
62326 924872
858940 242249
627382 969525
512354 70269
769412 780287
361826 926088
35005 755223
887974 85885
11707 77278
608362 644124
929536 239515
406763 310105
19670 964821
471979 969066
939008 217302
776174 280932
955990 435464
21778 304325
184853 927668
190427 64723
684685 151519
444621 754230
713707 244984
485994 894197
72257 314851
894128 96828
733976 19163
764316 166124
967945 61946
559243 410263
21708 122287
234199 55454
954143 978926
610808 125530
348480 369593
807814 421744
846267 416857
963364 104480
739942 536591
598151 273625
51816 586528
222611 804265
100459 819623
158167 133
613083 37366
268013 519584
363658 887961
24471 256830
130334 940228
299757 385850
877563 889977
684906 877963
936287 132675
138424 743015
654295 666337
901147 999336
90780 986221
451132 351869
783457 211825
406816 268345
450869 51610
587651 196006
92039 381320
628893 931374
22142 575310
259653 850231
269444 852783
630580 854393
24936 542823
763480 842884
441373 566913
819323 953420
247229 99801
563766 91948
473938 243231
284015 576114
687963 500638
319304 254360
778594 346967
200381 918713
441218 742984
417170 132961
772281 695431
292304 259088
994340 487736
185661 435358
130002 926651
913299 64088
90787 686365
805226 594478
475273 632317
350864 701712
479246 188746
39214 949823
68129 281167
21923 365496
128861 225010
55627 874417
359453 835713
992821 692153
802567 79465
324174 119503
944124 34648
863069 271343
151660 102337
288782 359542
730440 115525
983167 373083
87251 638287
221209 592554
235577 249080
917750 60043
284991 851585
917508 478078
49822 670479
928504 447672
657050 586687
168475 308875
751750 329174
585798 550971
926786 772556
809584 153949
424433 138302
911810 517916
655983 910430
948581 771596
882980 849764
192008 565462
482262 335823
769494 256417
866196 194383
585987 559478
159310 938754
918315 250321
390069 157158
346325 93602
967473 628257
270603 703100
776359 709118
644025 256551
789266 20311
334744 646905
717605 782555
502949 359541
3076 530030
585716 755286
335537 826528
220328 653858
227231 810629
49354 966203
579940 522985
563360 513837
866874 698897
548880 263175
527307 307947
192381 386774
755316 910324
90640 842964
232359 170221
738470 565236
251565 101272
627301 619979
752494 139099
192128 297631
612442 249486
994224 410296
174221 419661
152983 871526
469267 98063
390303 982856
186288 144598
476727 430952
63771 84013
243754 426461
193949 171927
373858 692845
543080 112738
760570 357251
531740 685131
478638 177017
480448 126585
991658 789684
520393 873151
638327 630335
302214 851847
390601 778185
801697 922727
934676 213983
905617 857645
249048 794387
