462640 347573 449
441644 393843 449
901979 759063 525
456328 578673 470
416856 265811 449
339547 759945 509
31120 245545 443
251153 750357 509
263788 658659 509
955512 168084 525
463818 945590 525
200045 441230 449
576963 66182 470
621150 724416 509
259574 43388 443
107422 653674 509
578807 110435 470
151398 87323 375
52989 859514 525
64168 988631 525
274036 78582 443
305341 583204 470
940214 725615 525
711733 400149 509
810625 767829 468
247482 708906 509
794101 530068 509
567901 188394 470
833871 197229 509
660267 245474 509
93413 977381 525
856908 614061 525
27584 853006 525
110630 484667 449
934436 160861 525
13694 387158 443
193973 969937 525
425089 277222 449
970304 435147 525
663275 638874 429
991352 727906 525
963673 456054 525
914105 317892 525
611871 910932 525
715718 943170 525
230355 913015 525
458210 100843 449
452395 940255 525
33621 440064 449
118369 733074 509
696941 421388 509
792873 930084 525
250011 100462 443
430555 671425 509
133341 545356 470
611010 548642 434
731789 433340 509
803402 323824 509
631394 164029 509
265215 381497 441
394457 140003 443
68452 844032 525
854210 315078 525
415005 737341 509
952032 596132 525
685782 712182 504
236458 555749 470
790870 256796 509
964290 132866 525
683284 236185 509
241709 557807 470
977883 701261 525
589303 727313 509
942037 593576 525
395194 531637 470
49522 396077 443
828690 807721 450
352670 277134 441
17466 16894 235
344129 824407 509
968424 480523 525
901269 877572 445
326051 228940 443
978594 934818 507
169072 694425 509
591858 675967 509
624463 911266 525
795526 334631 509
82738 166386 383
177959 127606 383
872665 252470 525
588538 82280 470
779979 223743 509
562154 282113 470
660001 720804 504
497682 489828 426
635185 114959 509
880644 364411 525
176389 335301 443
379502 378480 361
180230 251997 443
925209 38805 525
514878 637065 509
17795 669833 509
792875 4451 509
742100 180344 509
944036 158941 525
408490 594885 470
347683 911214 525
85778 446485 449
914194 892347 476
27493 568284 470
750857 834192 468
473927 955927 525
919908 725187 525
470048 425306 444
198086 159242 370
575752 503169 470
323629 194877 443
689745 520529 509
155874 450497 449
797533 764284 468
27241 277431 443
724581 107997 509
717990 277182 509
59030 386763 443
982436 922691 507
344364 506604 449
787420 84941 509
562533 641350 509
381055 361164 423
448208 341319 449
177423 930578 525
217414 811615 509
111467 909608 525
180149 477262 449
9152 967337 525
508326 623326 470
85200 273371 443
488762 213519 449
701717 822671 504
340211 947479 525
719553 983988 525
729875 134910 509
278991 414855 449
937984 829447 525
99617 912006 525
938337 140963 525
720890 835785 468
969504 396211 525
344743 645778 509
970085 434808 525
311873 803576 509
200016 368718 443
207027 756934 509
16188 823475 509
432393 891978 525
433922 278139 449
119778 561575 470
923193 372073 525
464479 377016 449
994413 116208 525
519903 362503 470
277120 960191 525
75649 882516 525
462664 510645 426
882018 360195 525
10271 20579 279
462386 632487 509
510524 129829 449
500308 892434 525
960888 64639 525
227300 218175 368
338394 545882 470
597351 862575 525
900551 606634 525
880854 201150 525
873275 849026 432
49119 212182 383
305516 949455 525
225892 977045 525
241857 345511 407
933681 988008 507
819029 341222 509
10755 857955 525
276311 477179 449
518252 948125 525
227054 498489 449
16784 952666 525
809681 697296 504
750837 532530 509
80162 336337 443
447379 482089 444
307628 253673 407
281319 348532 441
998867 776092 525
863817 267198 525
666086 210306 509
556641 628730 509
762513 10976 509
928517 655639 525
470164 307452 449
48943 399440 443
39496 243919 443
